…
## What is mean total number of steps taken per day?  
The mean and median of the total steps taken per day were calculated by firstly grouping the data by the column date, and the using the summarise function.

```r
act_gpdate <- group_by(act, date)
stsum_d <- summarise(act_gpdate, sum = sum(steps), 
                     mean = mean(steps), median = median(steps, na.rm = T))
stsum_d
```

```
## # A tibble: 61 x 4
##    date         sum   mean median
##    <date>     <int>  <dbl>  <dbl>
##  1 2012-10-01    NA NA         NA
##  2 2012-10-02   126  0.438      0
##  3 2012-10-03 11352 39.4        0
##  4 2012-10-04 12116 42.1        0
##  5 2012-10-05 13294 46.2        0
##  6 2012-10-06 15420 53.5        0
##  7 2012-10-07 11015 38.2        0
##  8 2012-10-08    NA NA         NA
##  9 2012-10-09 12811 44.5        0
## 10 2012-10-10  9900 34.4        0
## # ... with 51 more rows
```
…
## Are there differences in activity patterns between weekdays and weekends?
A new factor was created through using the function weekdays. This factor indicates whether a recorded day is a weekday or weekend:

```r
weekd_e <- mutate(imputed, weekdays = (weekdays(act$date) == 'Saturatday'|weekdays(act$date) == 'Sunday' )%>%factor(labels = c('weekdays', 'weekend')))
weekd_e
```

```
## # A tibble: 17,568 x 4
##     steps date       interval weekdays
##     <dbl> <date>        <int> <fct>   
##  1 1.72   2012-10-01        0 weekdays
##  2 0.340  2012-10-01        5 weekdays
##  3 0.132  2012-10-01       10 weekdays
##  4 0.151  2012-10-01       15 weekdays
##  5 0.0755 2012-10-01       20 weekdays
##  6 2.09   2012-10-01       25 weekdays
##  7 0.528  2012-10-01       30 weekdays
##  8 0.868  2012-10-01       35 weekdays
##  9 0      2012-10-01       40 weekdays
## 10 1.47   2012-10-01       45 weekdays
## # ... with 17,558 more rows
```
…
